com/tekcapsule/core/domain/BaseDomainEntity.class
com/tekcapsule/core/domain/EmptyFunctionInput.class
com/tekcapsule/core/auth/Auth.class
com/tekcapsule/core/domain/ExecBy.class
com/tekcapsule/core/domain/EmptyFunctionInput$EmptyFunctionInputBuilder.class
com/tekcapsule/core/domain/Command.class
com/tekcapsule/core/domain/ValueObject.class
com/tekcapsule/core/domain/SourceSystem.class
com/tekcapsule/core/domain/Origin$OriginBuilder.class
com/tekcapsule/core/domain/Query.class
com/tekcapsule/core/domain/AggregateRoot.class
com/tekcapsule/core/domain/CrudRepository.class
com/tekcapsule/core/domain/ExecBy$ExecByBuilder.class
com/tekcapsule/core/domain/Origin.class
